%YAML 1.1
%TAG !u! tag:unity3d.com,2011:
--- !u!319 &31900000
AvatarMask:
  m_ObjectHideFlags: 0
  m_PrefabParentObject: {fileID: 0}
  m_PrefabInternal: {fileID: 0}
  m_Name: Attack
  m_Mask: 01000000010000000100000001000000010000000100000001000000010000000100000001000000010000000100000001000000
  m_Elements:
  - m_Path: 
    m_Weight: 1
  - m_Path: Camera
    m_Weight: 0
  - m_Path: Cube
    m_Weight: 0
  - m_Path: LOW
    m_Weight: 0
  - m_Path: LOW.001
    m_Weight: 0
  - m_Path: metarig.001
    m_Weight: 0
  - m_Path: metarig.001/spine
    m_Weight: 0
  - m_Path: metarig.001/spine/pelvis.L
    m_Weight: 0
  - m_Path: metarig.001/spine/pelvis.L/pelvis.L_end
    m_Weight: 0
  - m_Path: metarig.001/spine/pelvis.R
    m_Weight: 0
  - m_Path: metarig.001/spine/pelvis.R/pelvis.R_end
    m_Weight: 0
  - m_Path: metarig.001/spine/spine.001
    m_Weight: 1
  - m_Path: metarig.001/spine/spine.001/spine.002
    m_Weight: 1
  - m_Path: metarig.001/spine/spine.001/spine.002/spine.003
    m_Weight: 1
  - m_Path: metarig.001/spine/spine.001/spine.002/spine.003/breast.L
    m_Weight: 1
  - m_Path: metarig.001/spine/spine.001/spine.002/spine.003/breast.L/breast.L_end
    m_Weight: 1
  - m_Path: metarig.001/spine/spine.001/spine.002/spine.003/breast.R
    m_Weight: 1
  - m_Path: metarig.001/spine/spine.001/spine.002/spine.003/breast.R/breast.R_end
    m_Weight: 1
  - m_Path: metarig.001/spine/spine.001/spine.002/spine.003/shoulder.L
    m_Weight: 1
  - m_Path: metarig.001/spine/spine.001/spine.002/spine.003/shoulder.L/upper_arm.L
    m_Weight: 1
  - m_Path: metarig.001/spine/spine.001/spine.002/spine.003/shoulder.L/upper_arm.L/forearm.L
    m_Weight: 1
  - m_Path: metarig.001/spine/spine.001/spine.002/spine.003/shoulder.L/upper_arm.L/forearm.L/hand.L
    m_Weight: 1
  - m_Path: metarig.001/spine/spine.001/spine.002/spine.003/shoulder.L/upper_arm.L/forearm.L/hand.L/f_index.01.L
    m_Weight: 1
  - m_Path: metarig.001/spine/spine.001/spine.002/spine.003/shoulder.L/upper_arm.L/forearm.L/hand.L/f_index.01.L/f_index.02.L
    m_Weight: 1
  - m_Path: metarig.001/spine/spine.001/spine.002/spine.003/shoulder.L/upper_arm.L/forearm.L/hand.L/f_index.01.L/f_index.02.L/f_index.03.L
    m_Weight: 1
  - m_Path: metarig.001/spine/spine.001/spine.002/spine.003/shoulder.L/upper_arm.L/forearm.L/hand.L/f_index.01.L/f_index.02.L/f_index.03.L/f_index.03.L_end
    m_Weight: 1
  - m_Path: metarig.001/spine/spine.001/spine.002/spine.003/shoulder.L/upper_arm.L/forearm.L/hand.L/f_middle.01.L
    m_Weight: 1
  - m_Path: metarig.001/spine/spine.001/spine.002/spine.003/shoulder.L/upper_arm.L/forearm.L/hand.L/f_middle.01.L/f_middle.02.L
    m_Weight: 1
  - m_Path: metarig.001/spine/spine.001/spine.002/spine.003/shoulder.L/upper_arm.L/forearm.L/hand.L/f_middle.01.L/f_middle.02.L/f_middle.03.L
    m_Weight: 1
  - m_Path: metarig.001/spine/spine.001/spine.002/spine.003/shoulder.L/upper_arm.L/forearm.L/hand.L/f_middle.01.L/f_middle.02.L/f_middle.03.L/f_middle.03.L_end
    m_Weight: 1
  - m_Path: metarig.001/spine/spine.001/spine.002/spine.003/shoulder.L/upper_arm.L/forearm.L/hand.L/f_pinky.01.L
    m_Weight: 1
  - m_Path: metarig.001/spine/spine.001/spine.002/spine.003/shoulder.L/upper_arm.L/forearm.L/hand.L/f_pinky.01.L/f_pinky.02.L
    m_Weight: 1
  - m_Path: metarig.001/spine/spine.001/spine.002/spine.003/shoulder.L/upper_arm.L/forearm.L/hand.L/f_pinky.01.L/f_pinky.02.L/f_pinky.03.L
    m_Weight: 1
  - m_Path: metarig.001/spine/spine.001/spine.002/spine.003/shoulder.L/upper_arm.L/forearm.L/hand.L/f_pinky.01.L/f_pinky.02.L/f_pinky.03.L/f_pinky.03.L_end
    m_Weight: 1
  - m_Path: metarig.001/spine/spine.001/spine.002/spine.003/shoulder.L/upper_arm.L/forearm.L/hand.L/f_ring.01.L
    m_Weight: 1
  - m_Path: metarig.001/spine/spine.001/spine.002/spine.003/shoulder.L/upper_arm.L/forearm.L/hand.L/f_ring.01.L/f_ring.02.L
    m_Weight: 1
  - m_Path: metarig.001/spine/spine.001/spine.002/spine.003/shoulder.L/upper_arm.L/forearm.L/hand.L/f_ring.01.L/f_ring.02.L/f_ring.03.L
    m_Weight: 1
  - m_Path: metarig.001/spine/spine.001/spine.002/spine.003/shoulder.L/upper_arm.L/forearm.L/hand.L/f_ring.01.L/f_ring.02.L/f_ring.03.L/f_ring.03.L_end
    m_Weight: 1
  - m_Path: metarig.001/spine/spine.001/spine.002/spine.003/shoulder.L/upper_arm.L/forearm.L/hand.L/thumb.01.L
    m_Weight: 1
  - m_Path: metarig.001/spine/spine.001/spine.002/spine.003/shoulder.L/upper_arm.L/forearm.L/hand.L/thumb.01.L/thumb.02.L
    m_Weight: 1
  - m_Path: metarig.001/spine/spine.001/spine.002/spine.003/shoulder.L/upper_arm.L/forearm.L/hand.L/thumb.01.L/thumb.02.L/thumb.03.L
    m_Weight: 1
  - m_Path: metarig.001/spine/spine.001/spine.002/spine.003/shoulder.L/upper_arm.L/forearm.L/hand.L/thumb.01.L/thumb.02.L/thumb.03.L/thumb.03.L_end
    m_Weight: 1
  - m_Path: metarig.001/spine/spine.001/spine.002/spine.003/shoulder.R
    m_Weight: 1
  - m_Path: metarig.001/spine/spine.001/spine.002/spine.003/shoulder.R/upper_arm.R
    m_Weight: 1
  - m_Path: metarig.001/spine/spine.001/spine.002/spine.003/shoulder.R/upper_arm.R/forearm.R
    m_Weight: 1
  - m_Path: metarig.001/spine/spine.001/spine.002/spine.003/shoulder.R/upper_arm.R/forearm.R/hand.R
    m_Weight: 1
  - m_Path: metarig.001/spine/spine.001/spine.002/spine.003/shoulder.R/upper_arm.R/forearm.R/hand.R/f_index.01.R
    m_Weight: 1
  - m_Path: metarig.001/spine/spine.001/spine.002/spine.003/shoulder.R/upper_arm.R/forearm.R/hand.R/f_index.01.R/f_index.02.R
    m_Weight: 1
  - m_Path: metarig.001/spine/spine.001/spine.002/spine.003/shoulder.R/upper_arm.R/forearm.R/hand.R/f_index.01.R/f_index.02.R/f_index.03.R
    m_Weight: 1
  - m_Path: metarig.001/spine/spine.001/spine.002/spine.003/shoulder.R/upper_arm.R/forearm.R/hand.R/f_index.01.R/f_index.02.R/f_index.03.R/f_index.03.R_end
    m_Weight: 1
  - m_Path: metarig.001/spine/spine.001/spine.002/spine.003/shoulder.R/upper_arm.R/forearm.R/hand.R/f_middle.01.R
    m_Weight: 1
  - m_Path: metarig.001/spine/spine.001/spine.002/spine.003/shoulder.R/upper_arm.R/forearm.R/hand.R/f_middle.01.R/f_middle.02.R
    m_Weight: 1
  - m_Path: metarig.001/spine/spine.001/spine.002/spine.003/shoulder.R/upper_arm.R/forearm.R/hand.R/f_middle.01.R/f_middle.02.R/f_middle.03.R
    m_Weight: 1
  - m_Path: metarig.001/spine/spine.001/spine.002/spine.003/shoulder.R/upper_arm.R/forearm.R/hand.R/f_middle.01.R/f_middle.02.R/f_middle.03.R/f_middle.03.R_end
    m_Weight: 1
  - m_Path: metarig.001/spine/spine.001/spine.002/spine.003/shoulder.R/upper_arm.R/forearm.R/hand.R/f_pinky.01.R
    m_Weight: 1
  - m_Path: metarig.001/spine/spine.001/spine.002/spine.003/shoulder.R/upper_arm.R/forearm.R/hand.R/f_pinky.01.R/f_pinky.02.R
    m_Weight: 1
  - m_Path: metarig.001/spine/spine.001/spine.002/spine.003/shoulder.R/upper_arm.R/forearm.R/hand.R/f_pinky.01.R/f_pinky.02.R/f_pinky.03.R
    m_Weight: 1
  - m_Path: metarig.001/spine/spine.001/spine.002/spine.003/shoulder.R/upper_arm.R/forearm.R/hand.R/f_pinky.01.R/f_pinky.02.R/f_pinky.03.R/f_pinky.03.R_end
    m_Weight: 1
  - m_Path: metarig.001/spine/spine.001/spine.002/spine.003/shoulder.R/upper_arm.R/forearm.R/hand.R/f_ring.01.R
    m_Weight: 1
  - m_Path: metarig.001/spine/spine.001/spine.002/spine.003/shoulder.R/upper_arm.R/forearm.R/hand.R/f_ring.01.R/f_ring.02.R
    m_Weight: 1
  - m_Path: metarig.001/spine/spine.001/spine.002/spine.003/shoulder.R/upper_arm.R/forearm.R/hand.R/f_ring.01.R/f_ring.02.R/f_ring.03.R
    m_Weight: 1
  - m_Path: metarig.001/spine/spine.001/spine.002/spine.003/shoulder.R/upper_arm.R/forearm.R/hand.R/f_ring.01.R/f_ring.02.R/f_ring.03.R/f_ring.03.R_end
    m_Weight: 1
  - m_Path: metarig.001/spine/spine.001/spine.002/spine.003/shoulder.R/upper_arm.R/forearm.R/hand.R/thumb.01.R
    m_Weight: 1
  - m_Path: metarig.001/spine/spine.001/spine.002/spine.003/shoulder.R/upper_arm.R/forearm.R/hand.R/thumb.01.R/thumb.02.R
    m_Weight: 1
  - m_Path: metarig.001/spine/spine.001/spine.002/spine.003/shoulder.R/upper_arm.R/forearm.R/hand.R/thumb.01.R/thumb.02.R/thumb.03.R
    m_Weight: 1
  - m_Path: metarig.001/spine/spine.001/spine.002/spine.003/shoulder.R/upper_arm.R/forearm.R/hand.R/thumb.01.R/thumb.02.R/thumb.03.R/thumb.03.R_end
    m_Weight: 1
  - m_Path: metarig.001/spine/spine.001/spine.002/spine.003/spine.004
    m_Weight: 1
  - m_Path: metarig.001/spine/spine.001/spine.002/spine.003/spine.004/spine.005
    m_Weight: 1
  - m_Path: metarig.001/spine/spine.001/spine.002/spine.003/spine.004/spine.005/spine.006
    m_Weight: 1
  - m_Path: metarig.001/spine/spine.001/spine.002/spine.003/spine.004/spine.005/spine.006/face
    m_Weight: 1
  - m_Path: metarig.001/spine/spine.001/spine.002/spine.003/spine.004/spine.005/spine.006/face/Coleta.arriba
    m_Weight: 1
  - m_Path: metarig.001/spine/spine.001/spine.002/spine.003/spine.004/spine.005/spine.006/face/Coleta.arriba/coleta.abajo
    m_Weight: 1
  - m_Path: metarig.001/spine/spine.001/spine.002/spine.003/spine.004/spine.005/spine.006/face/Coleta.arriba/coleta.abajo/coleta.abajo_end
    m_Weight: 1
  - m_Path: metarig.001/spine/thigh.L
    m_Weight: 0
  - m_Path: metarig.001/spine/thigh.L/shin.L
    m_Weight: 0
  - m_Path: metarig.001/spine/thigh.L/shin.L/foot.L
    m_Weight: 0
  - m_Path: metarig.001/spine/thigh.L/shin.L/foot.L/heel.02.L
    m_Weight: 0
  - m_Path: metarig.001/spine/thigh.L/shin.L/foot.L/heel.02.L/heel.02.L_end
    m_Weight: 0
  - m_Path: metarig.001/spine/thigh.L/shin.L/foot.L/toe.L
    m_Weight: 0
  - m_Path: metarig.001/spine/thigh.L/shin.L/foot.L/toe.L/toe.L_end
    m_Weight: 0
  - m_Path: metarig.001/spine/thigh.R
    m_Weight: 0
  - m_Path: metarig.001/spine/thigh.R/shin.R
    m_Weight: 0
  - m_Path: metarig.001/spine/thigh.R/shin.R/foot.R
    m_Weight: 0
  - m_Path: metarig.001/spine/thigh.R/shin.R/foot.R/heel.02.R
    m_Weight: 0
  - m_Path: metarig.001/spine/thigh.R/shin.R/foot.R/heel.02.R/heel.02.R_end
    m_Weight: 0
  - m_Path: metarig.001/spine/thigh.R/shin.R/foot.R/toe.R
    m_Weight: 0
  - m_Path: metarig.001/spine/thigh.R/shin.R/foot.R/toe.R/toe.R_end
    m_Weight: 0
  - m_Path: Point
    m_Weight: 0
  - m_Path: WGTS_rig
    m_Weight: 0
